# Blender v2.66 (sub 1) OBJ File: ''
# www.blender.org
mtllib radar_ab.mtl
o import_radar.prm
v 0.676930 0.256270 0.188870
v 0.676930 0.007300 0.188870
v 0.427950 0.007300 -0.619390
v 0.427950 0.256270 -0.619390
v -0.417680 0.007300 -0.632360
v -0.417680 0.256270 -0.632360
v -0.691340 0.007300 0.167870
v -0.691340 0.256270 0.167870
v -0.014830 0.007300 0.675420
v -0.014830 0.256270 0.675420
v 0.403740 0.428820 0.095440
v 0.254680 0.428820 -0.388440
v -0.251580 0.428820 -0.396200
v -0.415410 0.428820 0.082880
v -0.010400 0.428820 0.386730
v 0.495690 0.445460 0.126890
v 0.313000 0.445460 -0.466180
v -0.307490 0.445460 -0.475700
v -0.508290 0.445460 0.111490
v -0.011890 0.445460 0.483910
v 0.152960 0.693880 0.009680
v 0.095620 0.693880 -0.176430
v -0.099100 0.693880 -0.179420
v -0.162110 0.693880 0.004850
v -0.006330 0.693880 0.121720
v -0.006330 0.693880 0.121720
v 0.152960 0.693880 0.009680
v 0.095620 0.693880 -0.176430
v -0.099100 0.693880 -0.179420
v -0.162110 0.693880 0.004850
v -0.368840 2.764600 0.637810
v -0.368840 3.125060 0.755060
v 0.371540 3.125060 0.755060
v 0.371540 2.764600 0.637810
v -1.109220 2.435510 0.424110
v -1.109220 2.795970 0.541360
v -0.368840 2.404140 0.520570
v 0.371540 2.404140 0.520570
v 1.111920 2.795970 0.541360
v 1.111920 2.435510 0.424110
v -1.849600 2.139900 0.107490
v -2.557410 2.279150 -0.320630
v -2.492790 2.602840 -0.215340
v -1.849600 2.500360 0.224740
v -1.109220 2.075050 0.306870
v -0.368840 2.043680 0.403330
v 0.371540 2.043680 0.403330
v 1.111920 2.075050 0.306870
v 1.852300 2.500360 0.224740
v 1.852300 2.139900 0.107490
v 2.495490 2.602840 -0.215340
v 2.560110 2.279150 -0.320630
v -2.557410 1.918690 -0.437870
v -1.849600 1.779440 -0.009750
v -1.109220 1.714590 0.189630
v -0.368840 1.683220 0.286080
v 0.371540 1.683220 0.286080
v 1.111920 1.714590 0.189630
v 1.852300 1.779440 -0.009750
v 2.560110 1.918690 -0.437870
v -2.492790 1.595000 -0.543160
v -1.849600 1.418980 -0.126990
v -1.109220 1.354130 0.072380
v -0.368840 1.322760 0.168840
v 0.371540 1.322760 0.168840
v 1.111920 1.354130 0.072380
v 1.852300 1.418980 -0.126990
v 2.495490 1.595000 -0.543160
v -1.109220 0.993670 -0.044860
v -0.368840 0.962300 0.051600
v 0.371540 0.962300 0.051600
v 1.111920 0.993670 -0.044860
v -0.229220 2.188470 -0.703050
v -0.229220 1.784260 -0.722050
v 0.231600 1.784260 -0.722050
v 0.231600 2.188470 -0.703050
v -1.849600 1.088650 -0.234440
v -1.479410 0.909680 -0.188870
v -1.109220 0.779320 -0.114580
v -0.368840 0.601840 -0.065650
v 1.111920 0.779320 -0.114580
v 0.371540 0.601840 -0.065650
v 1.482110 0.909680 -0.188870
v 1.852300 1.088650 -0.234440
v 1.852300 2.830690 0.332180
v 1.482110 2.948610 0.474310
v 1.111920 3.010320 0.611080
v -1.109220 3.010320 0.611080
v -1.479410 2.948610 0.474310
v -1.849600 2.830690 0.332180
v 0.103520 0.796820 -0.003460
v -0.103640 0.789680 -0.003510
v 0.106480 0.665440 -0.050320
v -0.106570 0.656520 -0.050190
v -0.103640 0.789680 -0.003510
v 0.103520 0.796820 -0.003460
v 0.105480 1.630130 -1.214720
v -0.103100 1.630130 -1.214720
v 0.105480 1.630130 -1.214720
v 0.103520 0.796820 -0.003460
v 0.106480 0.665440 -0.050320
v 0.105480 1.561420 -1.355790
v -0.106570 0.656520 -0.050190
v -0.103100 1.561420 -1.355790
v 0.105480 1.561420 -1.355790
v 0.106480 0.665440 -0.050320
v -0.106570 0.656520 -0.050190
v -0.103640 0.789680 -0.003510
v -0.103100 1.630130 -1.214720
v -0.103100 1.561420 -1.355790
v -0.103100 1.873840 -1.215410
v 0.105480 1.873840 -1.215410
v 0.105480 1.873840 -1.215410
v 0.105480 1.990660 -1.356480
v 0.105480 1.990660 -1.356480
v -0.103100 1.990660 -1.356480
v -0.103100 1.873840 -1.215410
v -0.103100 1.990660 -1.356480
v -0.103100 1.956230 -0.967310
v 0.105480 1.956230 -0.967310
v 0.105480 2.139180 -0.958710
v 0.105480 1.956230 -0.967310
v 0.105480 2.139180 -0.958710
v -0.103100 2.139180 -0.958710
v -0.103100 2.139180 -0.958710
v -0.103100 1.956230 -0.967310
v -0.229220 1.784260 -0.722050
v 0.231600 1.784260 -0.722050
v 0.231600 2.188470 -0.703050
v -0.229220 2.188470 -0.703050
vt 0.000000 0.000000
usemtl #00:00:0400
s 1
f 1/1 2/1 3/1
f 1/1 3/1 4/1
f 4/1 3/1 5/1
f 5/1 6/1 4/1
f 6/1 5/1 7/1
f 7/1 8/1 6/1
f 8/1 7/1 9/1
f 9/1 10/1 8/1
f 10/1 9/1 2/1
f 2/1 1/1 10/1
f 11/1 1/1 4/1
f 4/1 12/1 11/1
f 12/1 4/1 6/1
f 6/1 13/1 12/1
f 13/1 6/1 8/1
f 8/1 14/1 13/1
f 14/1 8/1 10/1
f 10/1 15/1 14/1
f 1/1 15/1 10/1
f 1/1 11/1 15/1
f 16/1 11/1 12/1
f 12/1 17/1 16/1
f 17/1 12/1 13/1
f 13/1 18/1 17/1
f 18/1 13/1 14/1
f 14/1 19/1 18/1
f 19/1 14/1 15/1
f 15/1 20/1 19/1
f 20/1 15/1 11/1
f 11/1 16/1 20/1
f 21/1 16/1 17/1
f 17/1 22/1 21/1
f 22/1 17/1 18/1
f 18/1 23/1 22/1
f 23/1 18/1 19/1
f 19/1 24/1 23/1
f 24/1 19/1 20/1
f 20/1 25/1 24/1
f 25/1 20/1 16/1
f 16/1 21/1 25/1
f 26/1 27/1 28/1
f 28/1 29/1 30/1
f 26/1 28/1 30/1
f 73/1 74/1 75/1
f 75/1 76/1 73/1
f 95/1 96/1 97/1
f 97/1 98/1 95/1
f 99/1 100/1 101/1
f 101/1 102/1 99/1
f 103/1 104/1 105/1
f 105/1 106/1 103/1
f 107/1 108/1 109/1
f 109/1 110/1 107/1
f 111/1 98/1 97/1
f 97/1 112/1 111/1
f 113/1 99/1 102/1
f 102/1 114/1 113/1
f 115/1 105/1 104/1
f 104/1 116/1 115/1
f 117/1 118/1 110/1
f 110/1 109/1 117/1
f 119/1 111/1 112/1
f 112/1 120/1 119/1
f 121/1 122/1 113/1
f 113/1 114/1 121/1
f 123/1 115/1 116/1
f 116/1 124/1 123/1
f 125/1 118/1 117/1
f 117/1 126/1 125/1
f 127/1 119/1 120/1
f 120/1 128/1 127/1
f 76/1 75/1 122/1
f 122/1 121/1 76/1
f 129/1 123/1 124/1
f 124/1 130/1 129/1
f 73/1 125/1 126/1
f 126/1 74/1 73/1
usemtl #00:00:0402
f 31/1 32/1 33/1
f 33/1 34/1 31/1
f 35/1 36/1 31/1
f 31/1 37/1 35/1
f 37/1 31/1 34/1
f 34/1 38/1 37/1
f 38/1 34/1 39/1
f 39/1 40/1 38/1
f 41/1 42/1 43/1
f 43/1 44/1 41/1
f 41/1 44/1 35/1
f 35/1 45/1 41/1
f 45/1 35/1 37/1
f 37/1 46/1 45/1
f 46/1 37/1 38/1
f 38/1 47/1 46/1
f 47/1 38/1 40/1
f 40/1 48/1 47/1
f 48/1 40/1 49/1
f 49/1 50/1 48/1
f 50/1 49/1 51/1
f 51/1 52/1 50/1
f 53/1 42/1 41/1
f 41/1 54/1 53/1
f 54/1 41/1 45/1
f 45/1 55/1 54/1
f 55/1 45/1 46/1
f 46/1 56/1 55/1
f 56/1 46/1 47/1
f 47/1 57/1 56/1
f 57/1 47/1 48/1
f 48/1 58/1 57/1
f 58/1 48/1 50/1
f 50/1 59/1 58/1
f 59/1 50/1 52/1
f 52/1 60/1 59/1
f 61/1 53/1 54/1
f 54/1 62/1 61/1
f 62/1 54/1 55/1
f 55/1 63/1 62/1
f 63/1 55/1 56/1
f 56/1 64/1 63/1
f 64/1 56/1 57/1
f 57/1 65/1 64/1
f 65/1 57/1 58/1
f 58/1 66/1 65/1
f 66/1 58/1 59/1
f 59/1 67/1 66/1
f 68/1 67/1 59/1
f 59/1 60/1 68/1
f 69/1 63/1 64/1
f 64/1 70/1 69/1
f 70/1 64/1 65/1
f 65/1 71/1 70/1
f 71/1 65/1 66/1
f 66/1 72/1 71/1
f 61/1 62/1 77/1
f 63/1 69/1 78/1
f 63/1 78/1 77/1
f 63/1 77/1 62/1
f 78/1 69/1 79/1
f 79/1 69/1 70/1
f 70/1 80/1 79/1
f 81/1 82/1 71/1
f 71/1 72/1 81/1
f 81/1 72/1 83/1
f 67/1 84/1 83/1
f 67/1 83/1 72/1
f 67/1 72/1 66/1
f 84/1 67/1 68/1
f 51/1 49/1 85/1
f 40/1 39/1 86/1
f 40/1 86/1 85/1
f 40/1 85/1 49/1
f 86/1 39/1 87/1
f 34/1 33/1 87/1
f 87/1 39/1 34/1
f 88/1 32/1 31/1
f 31/1 36/1 88/1
f 88/1 36/1 89/1
f 44/1 90/1 89/1
f 44/1 89/1 36/1
f 44/1 36/1 35/1
f 90/1 44/1 43/1
f 70/1 71/1 91/1
f 91/1 92/1 70/1
f 91/1 71/1 82/1
f 82/1 93/1 91/1
f 93/1 82/1 80/1
f 80/1 94/1 93/1
f 80/1 70/1 92/1
f 92/1 94/1 80/1
