# Blender v2.66 (sub 1) OBJ File: ''
# www.blender.org
mtllib size.mtl
o body.prm
v 33.382858 1.170001 -2.970000
v 33.382858 1.440000 -3.420000
v 32.302860 1.530001 -2.970001
v 33.382858 1.440000 -4.500000
v 33.382858 1.170000 -4.860000
v 32.302860 1.530000 -4.860000
v 33.382858 1.170001 3.960001
v 33.382858 1.440002 3.599998
v 32.302860 1.620002 3.869999
v 33.382858 1.440002 2.429998
v 33.382858 1.170002 2.069998
v 32.302860 1.530002 2.070000
v 27.442860 1.170001 -2.970001
v 28.522860 1.530000 -2.970001
v 27.442862 1.440000 -3.420001
v 27.442862 1.440000 -4.500000
v 28.522860 1.530000 -4.860000
v 27.442860 1.170000 -4.860000
v 27.442860 1.170001 3.960000
v 28.522858 1.620001 3.870000
v 27.442862 1.440002 3.599998
v 27.442860 1.440002 2.429998
v 28.522860 1.530001 2.070000
v 27.442860 1.170002 2.069998
v 32.032860 3.420000 -1.260000
v 32.302860 3.510000 -0.720000
v 31.492859 3.600000 -0.990000
v 32.482857 3.330000 -0.990000
v 31.492859 3.420001 -1.350000
v 29.332626 3.601007 -0.990509
v 28.522976 3.509496 -0.719745
v 28.792976 3.419496 -1.259746
v 29.332975 3.419497 -1.349746
v 28.342627 3.331008 -0.990510
v 31.492859 2.340000 -2.880000
v 31.312859 2.250000 -3.690000
v 32.302860 2.340000 -2.610000
v 29.332859 2.340000 -2.880001
v 28.522860 2.340000 -2.610001
v 29.512859 2.250000 -3.690000
v 33.202858 0.270001 0.450000
v 33.292858 0.090001 2.069999
v 33.202858 0.270001 1.709999
v 27.622860 0.270002 0.450000
v 27.622860 0.270002 1.709998
v 27.532860 0.090001 2.069999
v 32.302860 0.090000 -4.860000
v 33.382858 0.090000 -4.860000
v 33.292858 0.090000 -6.120000
v 32.842861 0.090000 -6.390000
v 31.312860 0.090000 -6.839999
v 27.442860 0.090000 -4.860000
v 28.522860 0.090000 -4.860000
v 27.532860 0.090000 -6.120000
v 27.982861 0.090000 -6.390000
v 29.512859 0.090000 -6.840000
v 33.382858 1.260000 -2.610000
v 33.292858 1.980000 -1.800000
v 33.202858 1.980000 -3.240000
v 27.442860 1.260001 -2.610001
v 27.622860 1.980000 -3.240000
v 27.532860 1.980000 -1.800001
v 28.162861 1.890000 -5.940001
v 27.892860 1.800000 -5.940001
v 28.252861 1.800000 -6.210001
v 32.572861 1.800000 -6.210000
v 32.932861 1.800000 -5.940000
v 32.662861 1.890000 -5.940000
v 32.302860 0.090002 3.960000
v 32.302860 0.090001 2.070000
v 32.302860 0.090000 -2.970000
v 33.382858 0.090001 -2.970000
v 33.292858 0.090001 2.069999
v 33.292858 0.270001 3.960001
v 28.522858 0.090001 3.960000
v 28.522860 0.090001 2.070000
v 28.522860 0.090000 -2.970001
v 27.442862 0.090001 -2.970001
v 27.532860 0.090001 2.069999
v 27.532860 0.270001 3.960000
v 32.932861 2.160000 -3.420000
v 32.932861 2.250000 -1.980000
v 27.892860 2.160000 -3.420001
v 27.892860 2.250000 -1.980001
v 31.492859 2.340000 -2.880000
v 32.302860 2.340000 -2.610000
v 29.332859 2.340000 -2.880001
v 28.522860 2.340000 -2.610001
v 27.892860 2.250000 -1.980001
v 32.932861 2.250000 -1.980000
v 33.382858 0.090001 -2.970000
v 33.202858 0.270001 -2.520000
v 33.382858 1.170002 2.069998
v 33.382858 1.170001 -2.970000
v 33.382858 1.260001 1.709999
v 33.202858 0.270001 0.450000
v 33.202858 0.270001 1.709999
v 33.382858 1.260001 1.709999
v 33.382858 1.260001 0.449999
v 33.202858 1.260001 4.320000
v 33.382858 1.440002 3.599998
v 33.382858 1.170001 3.960001
v 33.112858 2.070000 3.779999
v 33.202858 2.070000 2.249999
v 33.382858 1.440002 2.429998
v 33.202858 0.270001 -2.520000
v 33.382858 1.260000 -2.610000
v 33.382858 1.440000 -3.420000
v 33.202858 1.980000 -3.240000
v 33.292858 1.170000 -6.120000
v 33.292858 1.260000 -5.310000
v 33.382858 1.170000 -4.860000
v 33.382858 1.440000 -4.500000
v 33.112858 1.980000 -4.590000
v 27.442862 0.090001 -2.970001
v 27.622860 0.270001 -2.520000
v 27.442860 1.170002 2.069998
v 27.442860 1.170001 -2.970001
v 27.442860 1.260001 1.709999
v 27.622860 0.270002 0.450000
v 27.442860 1.260001 0.450000
v 27.442860 1.260001 1.709999
v 27.622860 0.270002 1.709998
v 27.622860 1.260001 4.320000
v 27.442860 1.170001 3.960000
v 27.442862 1.440002 3.599998
v 27.712860 2.070001 3.780000
v 27.622860 2.070001 2.249999
v 27.442860 1.440002 2.429998
v 27.622860 0.270001 -2.520000
v 27.442860 1.260001 -2.610001
v 27.442862 1.440000 -3.420001
v 27.622860 1.980000 -3.240000
v 27.533039 1.170000 -6.120000
v 27.532860 1.260000 -5.310000
v 27.442862 1.440000 -4.500000
v 27.442860 1.170000 -4.860000
v 27.712860 1.980000 -4.590001
v 27.712858 1.170000 5.310000
v 29.062859 1.170000 5.490000
v 27.712858 0.630001 5.220000
v 29.062859 0.450000 5.400001
v 33.303249 2.340000 -1.440000
v 32.887058 2.340000 -1.800000
v 32.887058 2.340000 -1.440000
v 32.797058 2.610000 -1.440000
v 33.303249 2.610000 -1.350000
v 27.522266 2.340000 -1.440000
v 27.914415 2.340000 -1.440000
v 27.914415 2.340000 -1.800001
v 28.004416 2.610000 -1.440000
v 27.522266 2.610000 -1.350001
v 31.762857 0.450000 5.400001
v 33.112858 0.630000 5.220001
v 33.112858 1.170000 5.310000
v 32.932858 1.260001 5.130001
v 33.112858 1.170000 5.310000
v 31.762857 1.170000 5.490000
v 31.762857 1.170000 5.490000
v 31.672857 1.260000 5.310000
v 29.152859 1.260000 5.310000
v 29.062859 1.170000 5.490000
v 27.892859 1.260000 5.130000
v 27.712858 1.170000 5.310000
v 32.932858 1.260000 5.130001
v 32.842857 2.070000 5.040001
v 33.202858 1.260001 4.320000
v 33.112858 2.070000 3.779999
v 33.292858 1.980000 0.450000
v 33.202858 2.070000 2.249999
v 32.842861 1.170000 -6.390000
v 32.662861 1.260000 -6.300000
v 32.842861 1.170000 -6.390000
v 33.112862 1.260000 -6.030000
v 33.292858 1.170000 -6.120000
v 33.112862 1.260000 -6.030000
v 33.292858 1.260000 -5.310000
v 33.112858 1.980000 -4.590000
v 27.892859 1.260000 5.130000
v 27.622860 1.260001 4.320000
v 27.982859 2.070000 5.040000
v 27.712860 2.070001 3.780000
v 27.532860 1.980000 0.450000
v 27.622860 2.070001 2.249999
v 27.982861 1.170000 -6.390001
v 28.162861 1.260000 -6.300000
v 27.712860 1.260000 -6.030001
v 27.982861 1.170000 -6.390001
v 27.533039 1.170000 -6.120000
v 27.712860 1.260000 -6.030001
v 27.532860 1.260000 -5.310000
v 27.712860 1.980000 -4.590001
v 27.982861 2.070000 -4.500001
v 32.842861 2.070000 -4.500000
v 29.602859 2.160000 -4.770000
v 31.222860 2.160000 -4.770000
v 29.152859 2.070000 5.220000
v 29.152859 1.260000 5.310000
v 31.672857 2.070000 5.220000
v 31.672857 1.260000 5.310000
v 29.152859 2.070000 5.220000
v 28.162859 2.520000 5.220000
v 29.242859 2.610000 5.400001
v 27.982859 2.070000 5.040000
v 31.672857 2.070000 5.220000
v 31.582859 2.610000 5.400001
v 32.662857 2.520000 5.220001
v 32.842857 2.070000 5.040001
v 27.982859 2.340000 4.679999
v 28.162859 2.520000 5.220000
v 32.662857 2.520000 5.220001
v 32.842857 2.340000 4.680001
v 31.582859 2.520000 4.680000
v 31.582859 2.610000 5.400001
v 29.242859 2.610000 5.400001
v 29.242859 2.520000 4.680000
v 27.892859 2.340000 3.060000
v 29.602859 1.260000 -6.660001
v 29.512859 1.170000 -6.840000
v 29.512859 1.170000 -6.840000
v 31.312860 1.170000 -6.840000
v 31.222860 1.260000 -6.660001
v 31.312860 1.170000 -6.840000
v 32.932858 2.340000 3.060000
v 29.152859 2.520000 3.420000
v 31.672859 2.520000 3.420001
v 27.802858 2.250000 0.450000
v 33.022858 2.250000 0.450000
v 28.342859 3.420000 0.450000
v 28.342859 3.330000 1.980000
v 27.802858 2.250000 0.450000
v 27.892859 2.340000 3.060000
v 28.522860 3.600000 0.450000
v 28.522860 3.510000 1.710000
v 28.162861 1.260000 -6.300000
v 32.662861 1.260000 -6.300000
v 29.332859 3.420000 2.250000
v 29.152859 2.520000 3.420000
v 29.332859 3.600000 1.890000
v 31.492859 3.420000 2.250000
v 31.672859 2.520000 3.420001
v 32.932858 2.340000 3.060000
v 32.482857 3.330000 1.980000
v 33.022858 2.250000 0.450000
v 32.482861 3.420001 0.450000
v 32.302860 3.510000 1.710000
v 32.302860 3.600000 0.450000
v 31.492859 3.600000 1.890000
v 29.332859 3.690000 0.450000
v 31.492859 3.690000 0.450000
v 29.602859 1.890000 -6.390000
v 29.602859 1.800000 -6.570001
v 29.602859 1.260000 -6.660001
v 31.222860 1.890000 -6.390000
v 31.222860 1.800000 -6.570001
v 31.222860 1.260000 -6.660001
vt 0.886719 0.890625
vt 0.890625 0.886719
vt 0.894531 0.890625
vt 0.398438 0.451172
vt 0.400391 0.460938
vt 0.387695 0.459961
vt 0.000000 0.000000
vt 0.492766 0.319365
vt 0.437771 0.313255
vt 0.456103 0.307144
vt 0.425550 0.301034
vt 0.492766 0.307144
vt 0.307424 0.675976
vt 0.234098 0.608760
vt 0.289093 0.620981
vt 0.234098 0.486549
vt 0.307424 0.419333
vt 0.289093 0.474328
vt 0.299741 0.765385
vt 0.269189 0.753164
vt 0.501390 0.765385
vt 0.611379 0.753164
vt 0.586937 0.765385
vt 0.250857 0.881485
vt 0.348626 0.881485
vt 0.293631 0.832601
vt 0.406800 0.199219
vt 0.378906 0.199219
vt 0.398987 0.207031
vt 0.328125 0.484375
vt 0.335938 0.476562
vt 0.328125 0.476562
vt 0.252429 0.718750
vt 0.350198 0.718750
vt 0.252429 0.376559
vt 0.350198 0.376559
vt 0.492766 0.233818
vt 0.437771 0.233818
vt 0.394997 0.227707
vt 0.875000 0.414062
vt 0.875000 0.343750
vt 0.898438 0.355469
vt 0.898438 0.421875
vt 0.980469 0.421875
vt 0.980469 0.355469
vt 0.910156 0.667969
vt 0.960938 0.722656
vt 0.875000 0.726562
vt 0.715259 0.844822
vt 0.727480 0.887596
vt 0.764143 0.832601
vt 0.635822 0.844822
vt 0.623600 0.887596
vt 0.851562 0.433594
vt 0.863281 0.476562
vt 0.015625 0.871094
vt 0.214844 0.871094
vt 0.214844 0.941406
vt 0.011719 0.941406
vt 0.140867 0.753164
vt 0.055320 0.753164
vt 0.055320 0.826490
vt 0.140867 0.826490
vt 0.611379 0.826491
vt 0.269189 0.826491
vt 0.586937 0.832601
vt 0.501390 0.832601
vt 0.739701 0.826491
vt 0.238636 0.844822
vt 0.165309 0.844822
vt 0.110314 0.832601
vt 0.159199 0.881485
vt 0.681553 0.117304
vt 0.773211 0.153967
vt 0.681553 0.153967
vt 0.773211 0.105083
vt 0.779321 0.160078
vt 0.693774 0.160078
vt 0.789388 0.048828
vt 0.722656 0.054688
vt 0.722656 0.050781
vt 0.831279 0.054955
vt 0.819058 0.048844
vt 0.800727 0.054955
vt 0.922938 0.048844
vt 0.929048 0.054955
vt 0.956527 0.105083
vt 0.956527 0.153967
vt 0.768002 0.062821
vt 0.945208 0.068931
vt 0.774113 0.068931
vt 0.951319 0.062821
vt 0.972769 0.621679
vt 0.887221 0.658342
vt 0.887221 0.597236
vt 0.978879 0.658342
vt 0.964844 0.667969
vt 0.980469 0.468750
vt 0.164062 0.984375
vt 0.011719 0.984375
vt 0.386719 0.156250
vt 0.355469 0.085938
vt 0.355469 0.156250
vt 0.386719 0.085938
vt 0.788518 0.048844
vt 0.800781 0.054688
vt 0.066406 0.867188
vt 0.109375 0.832031
vt 0.062500 0.832031
vt 0.501390 0.881485
vt 0.623601 0.887596
vt 0.500087 0.882787
vt 0.347324 0.882787
vt 0.500087 0.833903
vt 0.160156 0.874498
vt 0.239593 0.886719
vt 0.166267 0.880608
vt 0.238636 0.893706
vt 0.179103 0.382670
vt 0.160156 0.492188
vt 0.160156 0.601562
vt 0.179103 0.712639
vt 0.336405 0.899817
vt 0.699219 0.160156
vt 0.777344 0.214844
vt 0.699219 0.214615
vt 0.777344 0.160156
vt 0.950417 0.160077
vt 0.950417 0.215072
vt 0.785432 0.251736
vt 0.712105 0.245625
vt 0.699884 0.214844
vt 0.944306 0.251736
vt 0.875000 0.718750
vt 0.960938 0.717674
vt 0.972769 0.750000
vt 0.820312 0.625000
vt 0.806810 0.700418
vt 0.769531 0.625000
vt 0.770146 0.712639
vt 0.769531 0.468750
vt 0.820312 0.468750
vt 0.678595 0.905928
vt 0.492188 0.085938
vt 0.492188 0.156250
vt 0.811860 0.073184
vt 0.921850 0.073184
vt 0.805750 0.067074
vt 0.927961 0.067074
vt 0.609375 0.156250
vt 0.609375 0.085938
vt 0.806809 0.394891
vt 0.770146 0.382670
vt 0.660156 0.718750
vt 0.683594 0.632812
vt 0.683594 0.460938
vt 0.501390 0.899817
vt 0.605269 0.973144
vt 0.501390 0.979254
vt 0.403586 0.973212
vt 0.515600 0.410033
vt 0.601148 0.422254
vt 0.515600 0.422254
vt 0.619479 0.410033
vt 0.367188 0.164062
vt 0.398987 0.164062
vt 0.725490 0.319425
vt 0.780485 0.264430
vt 0.792706 0.325536
vt 0.694937 0.252209
vt 0.071447 0.873170
vt 0.164062 0.878906
vt 0.171875 0.886719
vt 0.619479 0.691118
vt 0.613369 0.623902
vt 0.601148 0.678897
vt 0.637811 0.623902
vt 0.939359 0.325536
vt 0.951580 0.264430
vt 0.515600 0.678898
vt 0.515600 0.691119
vt 0.613525 0.624023
vt 0.636719 0.477295
vt 0.636963 0.624023
vt 0.613281 0.624023
vt 0.613281 0.477295
vt 0.613369 0.477249
vt 0.515600 0.477249
vt 0.515600 0.623903
vt 0.436180 0.422262
vt 0.417797 0.410018
vt 0.436163 0.678898
vt 0.417831 0.691119
vt 0.417797 0.477234
vt 0.417831 0.623903
vt 0.495068 0.307214
vt 0.641713 0.307180
vt 0.641737 0.319504
vt 0.495068 0.319435
vt 0.081334 0.394891
vt 0.050781 0.492188
vt 0.496094 0.207031
vt 0.406250 0.199146
vt 0.398438 0.206959
vt 0.496094 0.199219
vt 0.398438 0.163990
vt 0.496094 0.164062
vt 0.641762 0.307583
vt 0.495117 0.307617
vt 0.495117 0.234291
vt 0.641770 0.234291
vt 0.081334 0.700418
vt 0.050781 0.601562
vt 0.605469 0.199219
vt 0.605469 0.207031
vt 0.605469 0.164062
usemtl #00:00:0400
s 1
f 6/1 5/2 4/3
f 9/1 8/2 7/3
f 12/1 11/2 10/3
f 15/1 14/2 13/3
f 18/1 17/2 16/3
f 21/2 20/3 19/1
f 24/2 23/3 22/1
f 49/1 48/2 47/3
f 49/1 47/2 50/3
f 50/1 47/2 51/3
f 54/1 53/2 52/3
f 55/1 53/2 54/3
f 56/1 53/2 55/3
f 3/3 6/1 2/2
f 6/3 4/1 2/2
f 9/1 12/2 8/3
f 12/3 10/1 8/2
f 69/2 9/3 7/1
f 69/2 12/3 9/1
f 70/3 12/1 69/2
f 71/3 6/1 3/2
f 1/3 71/1 3/2
f 70/2 11/3 12/1
f 47/3 6/1 71/2
f 47/2 5/3 6/1
f 71/1 1/2 72/3
f 48/1 5/2 47/3
f 73/1 11/2 70/3
f 74/1 69/2 7/3
f 17/2 14/3 15/1
f 16/2 17/3 15/1
f 23/3 20/1 21/2
f 22/2 23/3 21/1
f 20/2 75/3 19/1
f 23/2 75/3 20/1
f 23/3 76/1 75/2
f 17/2 77/3 14/1
f 14/1 77/2 13/3
f 24/3 76/1 23/2
f 17/3 53/1 77/2
f 18/1 53/2 17/3
f 13/2 77/3 78/1
f 18/3 52/1 53/2
f 24/3 79/1 76/2
f 75/3 80/1 19/2
f 70/2 76/3 77/1
f 70/3 77/1 71/2
f 78/3 76/1 79/2
f 77/1 76/2 78/3
f 70/3 71/1 72/2
f 73/2 70/3 72/1
f 145/4 144/5 143/6
f 144/4 147/5 143/6
f 146/5 147/6 144/4
f 150/5 149/6 148/4
f 152/4 150/5 148/6
f 152/5 151/6 150/4
f 153/1 75/2 69/3
f 142/3 75/1 153/2
f 141/2 75/3 142/1
f 80/1 75/2 141/3
f 69/1 154/2 153/3
f 69/2 74/3 154/1
f 69/1 76/2 70/3
f 69/2 75/3 76/1
f 71/1 77/2 47/3
f 77/3 53/1 47/2
f 51/1 47/2 56/3
f 47/2 53/3 56/1
usemtl #00:00:0400_NONE
f 147/7 145/7 143/7
f 147/7 146/7 145/7
f 149/7 152/7 148/7
f 151/7 152/7 149/7
usemtl #00:00:0000
f 1/2 3/3 2/1
f 27/8 26/9 25/10
f 25/10 26/9 28/11
f 29/12 27/8 25/10
f 32/10 31/9 30/8
f 32/10 30/8 33/12
f 34/11 31/9 32/10
f 37/13 36/14 35/15
f 40/16 39/17 38/18
f 43/19 42/20 41/21
f 46/22 45/23 44/21
f 59/24 58/25 57/26
f 62/25 61/24 60/26
f 65/27 64/28 63/29
f 68/30 67/31 66/32
f 36/14 37/13 81/33
f 37/13 82/34 81/33
f 83/35 39/17 40/16
f 84/36 39/17 83/35
f 85/37 29/12 25/10
f 25/10 86/38 85/37
f 87/37 32/10 33/12
f 88/38 32/10 87/37
f 34/11 32/10 88/38
f 89/39 34/11 88/38
f 25/10 28/11 86/38
f 28/11 90/39 86/38
f 41/20 42/21 91/19
f 41/20 91/21 92/19
f 93/40 42/41 43/42
f 94/21 92/19 91/20
f 95/43 93/40 43/42
f 99/44 98/43 97/42 96/45
f 102/46 101/47 100/48
f 101/49 103/50 100/51
f 101/49 105/52 104/53
f 103/50 101/49 104/53
f 105/54 93/40 95/43
f 104/55 105/54 95/43
f 96/56 106/57 57/58
f 99/59 96/56 57/58
f 107/21 92/19 94/20
f 108/20 107/21 94/19
f 109/21 107/19 108/20
f 48/60 49/61 110/62 5/63
f 113/21 112/19 111/20
f 114/21 113/19 111/20
f 113/20 109/21 108/19
f 114/20 109/21 113/19
f 46/22 44/21 115/20
f 115/20 44/21 116/19
f 46/22 117/64 45/23
f 116/19 118/65 115/20
f 117/64 119/66 45/23
f 123/23 122/66 121/67 120/21
f 126/49 125/68 124/51
f 127/50 126/49 124/51
f 129/52 126/49 128/53
f 126/49 127/50 128/53
f 117/64 129/52 119/66
f 129/52 128/53 119/66
f 130/19 120/21 121/67 60/26
f 116/19 131/26 118/65
f 131/26 132/69 118/65
f 131/26 133/24 132/69
f 134/62 54/61 52/60 18/63
f 137/63 136/70 135/71
f 136/70 138/72 135/71
f 133/24 136/70 132/69
f 133/24 138/72 136/70
f 141/73 140/74 139/75
f 141/73 142/76 140/74
f 154/77 74/78 155/74
f 74/74 7/77 155/78
f 100/79 156/80 102/81
f 156/82 157/83 102/84
f 153/76 154/73 158/74
f 154/73 155/75 158/74
f 156/82 159/85 157/83
f 156/82 160/86 159/85
f 142/76 153/87 158/88 140/74
f 162/89 160/90 161/91
f 162/89 159/92 160/90
f 141/93 19/94 80/95
f 141/93 139/96 19/94
f 161/85 163/82 162/86
f 163/83 164/82 162/85
f 163/83 124/84 164/82
f 124/79 125/80 164/81
f 167/46 166/47 165/97
f 168/47 166/48 167/46
f 98/43 99/44 169/98
f 170/55 98/43 169/98
f 57/58 58/99 169/100 99/59
f 49/101 171/102 110/103
f 50/104 171/101 49/102
f 174/84 173/82 172/83
f 175/84 173/83 174/105
f 111/106 175/80 174/79
f 112/80 175/81 111/79
f 67/107 177/108 176/109
f 178/72 177/108 67/107
f 181/47 180/46 179/97
f 181/47 182/48 180/46
f 121/67 122/66 183/110
f 122/66 184/111 183/110
f 183/112 62/113 121/114
f 62/25 60/26 121/67
f 185/101 55/104 54/102 134/103
f 188/83 187/84 186/82
f 188/83 189/105 187/84
f 189/79 135/106 187/80
f 189/80 137/81 135/79
f 191/108 64/107 190/109
f 191/108 192/72 64/107
f 192/115 83/116 193/117
f 192/72 61/24 83/118
f 194/30 81/31 178/32
f 81/30 59/31 178/32
f 40/16 193/119 83/35
f 40/16 195/120 193/119
f 196/121 195/120 36/14
f 195/120 40/16 36/14
f 81/33 194/122 36/14
f 194/122 196/121 36/14
f 84/123 61/24 62/25
f 84/123 83/118 61/24
f 81/31 82/32 59/30
f 82/31 58/32 59/30
f 40/16 38/18 36/14
f 38/18 35/15 36/14
f 179/124 197/125 181/126
f 179/124 198/127 197/125
f 198/127 200/128 199/129 197/125
f 200/127 165/124 199/125
f 165/124 166/126 199/125
f 203/130 202/131 201/125
f 202/131 204/132 201/125
f 206/133 203/130 205/129
f 203/130 201/125 205/129
f 205/130 207/125 206/131
f 205/125 208/132 207/131
f 182/134 181/135 210/136
f 211/135 166/136 168/134
f 214/137 211/138 213/139
f 211/138 212/140 213/139
f 213/139 216/141 215/142 214/137
f 184/111 182/50 217/143
f 182/135 209/136 217/134
f 219/85 186/82 218/86
f 219/85 188/83 186/82
f 56/144 55/104 185/101 220/145
f 222/85 172/82 221/86
f 172/83 173/82 221/85
f 223/145 171/101 50/104 51/144
f 218/146 222/147 219/148
f 222/147 221/149 219/148
f 220/145 223/150 51/151 56/144
f 224/143 168/50 170/111
f 224/134 212/135 168/136
f 216/141 210/152 215/142
f 216/141 209/153 210/152
f 217/154 209/140 225/155
f 209/140 216/139 225/155
f 212/140 226/155 213/139
f 212/140 224/154 226/155
f 216/141 213/139 225/156
f 213/139 226/155 225/156
f 183/110 184/111 227/157
f 184/111 217/143 227/157
f 227/157 62/25 183/110
f 227/157 84/123 62/25
f 228/157 170/111 169/110
f 228/157 224/143 170/111
f 169/110 58/25 228/157
f 58/25 82/123 228/157
f 231/157 230/158 229/159
f 231/157 232/143 230/158
f 229/159 34/160 231/157
f 34/160 89/123 231/157
f 229/161 234/162 233/163
f 229/161 230/164 234/162
f 190/165 64/28 235/166
f 64/28 65/27 235/166
f 67/28 236/166 66/27
f 67/28 176/165 236/166
f 230/167 238/168 237/169
f 230/167 232/170 238/168
f 64/24 193/118 63/72
f 64/171 192/172 193/173
f 230/174 239/175 234/176
f 230/174 237/177 239/175
f 238/168 240/178 237/169
f 238/168 241/179 240/178
f 243/167 241/168 242/170
f 243/167 240/169 241/168
f 245/159 243/158 244/157
f 243/158 242/143 244/157
f 244/157 28/160 245/159
f 244/157 90/123 28/160
f 247/180 246/176 245/181
f 246/176 243/174 245/181
f 246/176 248/175 243/174
f 248/175 240/177 243/174
f 248/182 237/183 240/184
f 248/185 239/186 237/183
f 239/187 233/163 234/162
f 239/187 249/188 233/163
f 246/176 247/180 248/175
f 247/180 250/189 248/175
f 248/175 250/189 249/188 239/187
f 233/163 31/190 229/161
f 31/190 34/191 229/161
f 245/181 26/192 247/180
f 245/181 28/193 26/192
f 249/188 31/190 233/163
f 249/188 30/194 31/190
f 247/180 26/192 250/189
f 26/192 27/195 250/189
f 250/189 27/195 30/194 249/188
f 29/196 33/197 30/198 27/199
f 178/31 68/32 194/30
f 178/30 67/31 68/32
f 195/120 63/200 193/119
f 251/201 63/200 195/120
f 251/202 65/203 63/204
f 252/205 65/203 251/202
f 252/205 235/206 65/203
f 253/207 235/206 252/205
f 33/208 29/209 85/210 87/211
f 68/212 196/121 194/122
f 68/212 254/213 196/121
f 196/121 254/213 251/201 195/120
f 66/204 254/202 68/203
f 66/203 255/205 254/202
f 252/205 251/202 255/214
f 251/202 254/214 255/215
f 236/206 255/205 66/203
f 236/206 256/207 255/205
f 252/205 255/214 256/216 253/207
usemtl #00:00:0000_NONE
f 182/7 210/7 209/7
f 212/7 211/7 168/7
o plane2.m
v -4.426474 10.779608 -23.326475
v -4.427166 10.783489 -21.579693
v -5.946088 7.193367 -21.944796
v -5.945589 7.191103 -22.946562
v 4.427264 -10.783489 -23.274368
v 0.824043 -9.296388 -22.906670
v 0.823649 -9.294130 -21.904911
v 4.426473 -10.779543 -21.527491
v 5.945668 -7.191078 -21.907465
v 5.946088 -7.193301 -22.909174
v -0.823569 9.294155 -22.949116
v -0.824070 9.296419 -21.947350
v -0.013719 -4.457662 -22.395746
v 3.142409 -3.161779 -22.397303
v -3.142279 3.161886 -22.414165
v 0.013851 4.457772 -22.415724
vt 0.000000 0.000000
usemtl #00:00:0000_NONE
s 1
f 258/217 257/217 260/217 259/217
f 264/217 263/217 262/217 261/217
f 266/217 265/217 264/217 261/217
f 267/217 257/217 258/217 268/217
f 262/217 269/217 261/217
f 270/217 261/217 269/217
f 260/217 257/217 271/217
f 257/217 272/217 271/217
f 263/217 269/217 262/217
f 260/217 271/217 259/217
f 265/217 266/217 270/217
f 268/217 272/217 267/217
f 263/217 264/217 269/217
f 270/217 269/217 264/217
f 268/217 258/217 272/217
f 257/217 267/217 272/217
f 259/217 271/217 258/217
f 264/217 265/217 270/217
f 270/217 266/217 261/217
f 272/217 258/217 271/217
o Plane.m
v 5.272905 4.297643 -1.734714
v 5.267105 2.531548 -0.998493
v 5.261978 0.762138 -1.726775
v 5.260499 0.025945 -3.492893
v 5.263429 0.754218 -5.262280
v 5.275941 5.025910 -3.504106
v 5.269229 2.520311 -5.998500
v 5.274357 4.289721 -5.270217
v -5.352037 4.330495 -1.739006
v -5.349125 5.058794 -3.508357
v -5.350585 4.322574 -5.274508
v -5.355714 2.553167 -6.002793
v -5.361513 0.787074 -5.266574
v -5.364568 0.058830 -3.497144
v -5.362964 0.794992 -1.731069
v -5.357837 2.564402 -1.002786
v 4.256713 15.942886 -7.431029
v 6.007212 11.679570 -7.420724
v 6.287109 11.693346 -0.887044
v 4.454414 16.156775 -0.897837
v 4.426888 7.241353 -0.877844
v 4.230430 7.427149 -7.411967
v -4.285259 7.453486 -7.415675
v -6.035801 11.716791 -7.425996
v -6.321232 11.732359 -0.892507
v -4.488538 7.268932 -0.881716
v -4.258976 15.969223 -7.434738
v -4.461012 16.184353 -0.901708
v 3.141940 14.869829 5.637306
v -0.006120 16.185246 5.633054
v 0.002422 18.017010 -0.903906
v 4.437829 11.713743 5.644986
v 3.122438 8.565696 5.651474
v -0.033646 7.269824 5.653045
v -0.035096 6.339259 2.388700
v -3.181732 8.585203 5.648742
v -4.477578 11.741298 5.641077
v -3.162231 14.889336 5.634575
v -0.021543 11.745660 13.739426
v 3.129550 8.528789 -10.781219
v -0.026578 7.232905 -10.779661
v -0.032864 5.676648 -7.409878
v -3.174620 8.548295 -10.783950
v -4.470528 11.704405 -10.791593
v 4.444898 11.676826 -10.787722
v -3.155137 14.852453 -10.798081
v 3.149034 14.832950 -10.795351
v 0.002611 16.934019 -9.118247
v 0.000992 16.148340 -10.799639
v -15.431580 16.871769 -5.302905
v -12.443460 16.915670 -7.817408
v -12.440462 17.895283 -7.819589
v -15.429729 17.479143 -5.304242
v 12.450308 17.818251 -7.808829
v 12.447336 16.838673 -7.806599
v 15.432905 16.776316 -5.289469
v 15.434837 17.383650 -5.290864
v -15.472624 16.891048 -2.425329
v -15.471586 17.228127 -2.426093
v 15.471506 16.795343 -2.411871
v 15.472624 17.132380 -2.412692
v -13.571426 5.976987 -2.249103
v -10.950056 6.021991 -4.763808
v -10.947059 7.001606 -4.765992
v -13.569513 6.584344 -2.250459
v -13.607553 5.996233 0.628445
v -13.606534 6.333335 0.627718
v 13.502684 5.893233 -2.237347
v 13.504598 6.500593 -2.238706
v 10.886885 6.934077 -4.756490
v 10.883931 5.954472 -4.754292
v 13.536432 5.912282 0.640257
v 13.537470 6.249359 0.639493
v 7.041451 4.288218 -3.501691
v 7.039255 3.773246 -2.250556
v 7.035155 2.524430 -1.729964
v 7.031525 1.273276 -2.244931
v 7.030479 0.752704 -3.493768
v 7.032525 1.267673 -4.744914
v 7.036607 2.516511 -5.265469
v 7.040380 3.767613 -4.750580
v -7.119105 4.332035 -3.507481
v -7.121133 3.817042 -2.256372
v -7.125233 2.568229 -1.735782
v -7.128863 1.317071 -2.250747
v -7.130033 0.796531 -3.499545
v -7.127862 1.311468 -4.750730
v -7.123781 2.560308 -5.271285
v -7.120150 3.811464 -4.756319
v -0.011611 11.684023 -13.739426
v 4.328566 7.334275 -4.144874
v -4.386992 7.361230 -4.148663
v 0.004050 19.997156 12.396050
v 0.008333 21.054178 9.259180
v 1.560189 13.307757 9.688386
v 6.489827 12.493978 12.112653
v 7.138408 12.487429 10.088827
v 1.550385 10.155693 9.695471
v -6.527727 12.534240 12.106992
v -1.601616 10.165435 9.694093
v -7.175320 12.531717 10.082622
v -1.591936 13.317530 9.687049
v -12.447013 16.934238 0.453481
v 12.443804 16.857218 0.464255
v 0.007533 18.769283 -7.439219
v -10.953608 6.040560 3.507081
v 10.880380 5.973042 3.516597
v -0.035200 5.125021 -5.972027
v 4.284800 5.514300 -5.183557
v -4.353425 5.540996 -5.187345
v 2.986652 5.528693 -3.540862
v -3.056691 5.547397 -3.543469
v 4.283204 5.733260 0.102065
v -0.035686 5.548653 -1.791246
v -4.355120 5.760022 0.098371
v 5.268230 2.525914 -3.498518
v -5.356837 2.558800 -3.502769
v 7.768176 2.518191 -3.497421
v -7.856802 2.566548 -3.503829
vt 0.251953 0.748047
vt 0.251953 0.585938
vt 0.492676 0.585449
vt 0.495117 0.739258
vt 0.109863 0.546387
vt 0.120117 0.741211
vt 0.042969 0.715820
vt 0.212891 0.616211
vt 0.010742 0.505859
vt 0.000000 0.000000
usemtl #00:00:0000_dummy_f.bmp
s 1
f 292/218 291/219 290/220 289/221
f 300/218 299/221 296/220 297/219
f 367/222 366/223 365/224
f 367/222 302/225 366/223
f 365/224 311/226 367/222
usemtl #00:00:0000_NONE
f 273/227 275/227 274/227
f 273/227 276/227 275/227
f 276/227 273/227 278/227 277/227
f 280/227 279/227 277/227
f 278/227 280/227 277/227
f 283/227 282/227 281/227
f 284/227 283/227 281/227
f 286/227 285/227 284/227 281/227
f 287/227 286/227 281/227
f 281/227 288/227 287/227
f 294/227 290/227 291/227 293/227
f 298/227 297/227 296/227 295/227
f 292/227 303/227 302/227 301/227
f 291/227 292/227 301/227 304/227
f 293/227 291/227 304/227 305/227
f 307/227 293/227 305/227 306/227
f 307/227 306/227 308/227 298/227
f 297/227 298/227 308/227 309/227
f 300/227 297/227 309/227 310/227
f 303/227 300/227 310/227 302/227
f 305/227 311/227 306/227
f 308/227 306/227 311/227
f 294/227 314/227 313/227 312/227
f 315/227 313/227 314/227 295/227
f 316/227 315/227 295/227 296/227
f 290/227 294/227 312/227 317/227
f 296/227 299/227 318/227 316/227
f 321/227 320/227 289/227 319/227
f 317/227 319/227 289/227 290/227
f 320/227 321/227 318/227 299/227
f 325/227 324/227 323/227 322/227
f 329/227 328/227 327/227 326/227
f 331/227 325/227 322/227 330/227
f 333/227 332/227 328/227 329/227
f 337/227 336/227 335/227 334/227
f 339/227 337/227 334/227 338/227
f 343/227 342/227 341/227 340/227
f 340/227 341/227 345/227 344/227
f 278/227 273/227 347/227 346/227
f 347/227 273/227 274/227 348/227
f 349/227 348/227 274/227 275/227
f 350/227 349/227 275/227 276/227
f 351/227 350/227 276/227 277/227
f 352/227 351/227 277/227 279/227
f 280/227 353/227 352/227 279/227
f 278/227 346/227 353/227 280/227
f 355/227 281/227 282/227 354/227
f 356/227 288/227 281/227 355/227
f 357/227 287/227 288/227 356/227
f 358/227 286/227 287/227 357/227
f 359/227 285/227 286/227 358/227
f 359/227 360/227 284/227 285/227
f 361/227 283/227 284/227 360/227
f 361/227 354/227 282/227 283/227
f 321/227 319/227 362/227
f 319/227 317/227 362/227
f 317/227 312/227 362/227
f 312/227 313/227 362/227
f 313/227 315/227 362/227
f 315/227 316/227 362/227
f 316/227 318/227 362/227
f 318/227 321/227 362/227
f 294/227 363/227 314/227
f 314/227 364/227 295/227
f 369/227 367/227 368/227
f 370/227 369/227 368/227
f 373/227 372/227 371/227
f 374/227 373/227 371/227
f 366/227 374/227 365/227
f 374/227 310/227 309/227
f 302/227 310/227 374/227
f 367/227 301/227 302/227
f 304/227 301/227 367/227
f 366/227 302/227 374/227
f 374/227 311/227 365/227
f 372/227 373/227 309/227
f 374/227 309/227 373/227
f 372/227 309/227 308/227
f 370/227 305/227 304/227
f 369/227 304/227 367/227
f 370/227 304/227 369/227
f 367/227 311/227 368/227
f 368/227 311/227 370/227
f 372/227 311/227 371/227
f 371/227 311/227 374/227
f 299/227 323/227 320/227
f 323/227 299/227 322/227
f 300/227 375/227 330/227
f 327/227 289/227 320/227
f 327/227 328/227 289/227
f 376/227 292/227 332/227
f 320/227 324/227 377/227
f 320/227 323/227 324/227
f 326/227 320/227 377/227
f 326/227 327/227 320/227
f 292/227 376/227 303/227
f 375/227 300/227 303/227
f 377/227 329/227 326/227
f 333/227 329/227 377/227
f 325/227 377/227 324/227
f 377/227 325/227 331/227
f 299/227 330/227 322/227
f 303/227 377/227 331/227
f 328/227 332/227 289/227
f 333/227 377/227 303/227
f 300/227 330/227 299/227
f 331/227 375/227 303/227
f 330/227 375/227 331/227
f 303/227 376/227 333/227
f 289/227 332/227 292/227
f 333/227 376/227 332/227
f 338/227 378/227 339/227
f 379/227 344/227 345/227
f 343/227 314/227 342/227
f 363/227 342/227 314/227
f 345/227 293/227 379/227
f 307/227 379/227 293/227
f 345/227 341/227 293/227
f 293/227 341/227 342/227
f 342/227 363/227 293/227
f 335/227 336/227 314/227
f 339/227 378/227 298/227
f 307/227 298/227 378/227
f 339/227 298/227 337/227
f 314/227 336/227 364/227
f 337/227 298/227 336/227
f 364/227 336/227 298/227
f 314/227 381/227 380/227
f 382/227 314/227 380/227
f 344/227 379/227 307/227
f 307/227 378/227 338/227
f 383/227 380/227 381/227
f 384/227 382/227 380/227
f 386/227 383/227 385/227
f 384/227 386/227 387/227
f 307/227 385/227 344/227
f 338/227 387/227 307/227
f 343/227 340/227 381/227
f 385/227 340/227 344/227
f 381/227 340/227 385/227
f 382/227 334/227 335/227
f 338/227 334/227 387/227
f 387/227 334/227 382/227
f 383/227 386/227 380/227
f 385/227 307/227 386/227
f 380/227 386/227 384/227
f 386/227 307/227 387/227
f 382/227 335/227 314/227
f 314/227 343/227 381/227
f 381/227 385/227 388/227
f 382/227 389/227 387/227
f 382/227 384/227 389/227
f 387/227 389/227 384/227
f 388/227 383/227 381/227
f 388/227 385/227 383/227
f 346/227 347/227 390/227
f 347/227 348/227 390/227
f 348/227 349/227 390/227
f 349/227 350/227 390/227
f 350/227 351/227 390/227
f 351/227 352/227 390/227
f 352/227 353/227 390/227
f 353/227 346/227 390/227
f 391/227 355/227 354/227
f 391/227 356/227 355/227
f 391/227 357/227 356/227
f 391/227 358/227 357/227
f 391/227 359/227 358/227
f 391/227 360/227 359/227
f 391/227 361/227 360/227
f 391/227 354/227 361/227
