# Blender v2.66 (sub 1) OBJ File: ''
# www.blender.org
mtllib size.mtl
o trafficcone.m
v 6.000000 -1.791577 -0.000000
v 3.000000 -1.791577 -5.196153
v -3.000000 -1.791577 -5.196152
v -6.000000 -1.791577 0.000000
v 3.000001 -1.791577 5.196152
v -3.000000 -1.791577 5.196153
v 1.452785 14.708423 -0.000000
v 0.726393 14.708423 1.258148
v -0.726392 14.708423 1.258148
v -1.452785 14.708423 0.000000
v 0.726392 14.708423 -1.258148
v -0.726392 14.708423 -1.258148
v 3.000000 0.642680 -0.000000
v 1.500000 0.642680 2.598076
v -1.500000 0.642680 2.598076
v -3.000000 0.642680 0.000000
v -1.500000 0.642680 -2.598076
v 1.500000 0.642680 -2.598076
v 6.000000 -0.592278 -0.000000
v 3.000001 -0.592278 5.196152
v -3.000000 -0.592278 5.196153
v -6.000000 -0.592278 0.000000
v -3.000000 -0.592278 -5.196152
v 3.000000 -0.592278 -5.196153
vt 0.574219 0.800781
vt 0.574219 0.792969
vt 0.566406 0.792969
vt 0.566406 0.800781
vt 0.562500 0.632812
vt 0.570312 0.632812
vt 0.570312 0.828125
vt 0.562500 0.828125
usemtl #00:00:0000
s 1
f 2/1 1/2 4/3 3/4
f 1/3 5/4 6/1 4/2
f 10/3 9/4 8/1 7/2
f 12/1 10/2 7/3 11/4
f 14/5 13/6 7/7 8/8
f 9/8 15/5 14/6 8/7
f 9/7 10/8 16/5 15/6
f 10/7 12/8 17/5 16/6
f 12/7 11/8 18/5 17/6
f 18/6 11/7 7/8 13/5
f 13/2 14/3 20/4 19/1
f 14/3 15/4 21/1 20/2
f 15/4 16/1 22/2 21/3
f 16/4 17/1 23/2 22/3
f 17/3 18/4 24/1 23/2
f 24/2 18/3 13/4 19/1
f 5/3 1/4 19/1 20/2
f 6/2 5/3 20/4 21/1
f 4/1 6/2 21/3 22/4
f 3/3 4/4 22/1 23/2
f 2/4 3/1 23/2 24/3
f 1/3 2/4 24/1 19/2
o body.prm
v -9.295389 1.170001 -2.970000
v -9.295389 1.440000 -3.420000
v -10.375387 1.530001 -2.970001
v -9.295389 1.440000 -4.500000
v -9.295389 1.170000 -4.860000
v -10.375388 1.530000 -4.860000
v -9.295389 1.170001 3.960001
v -9.295389 1.440002 3.599998
v -10.375386 1.620002 3.869999
v -9.295389 1.440002 2.429998
v -9.295389 1.170002 2.069998
v -10.375387 1.530002 2.070000
v -15.235387 1.170001 -2.970001
v -14.155388 1.530000 -2.970001
v -15.235387 1.440000 -3.420001
v -15.235387 1.440000 -4.500000
v -14.155388 1.530000 -4.860000
v -15.235387 1.170000 -4.860000
v -15.235388 1.170001 3.960000
v -14.155389 1.620001 3.870000
v -15.235387 1.440002 3.599998
v -15.235388 1.440002 2.429998
v -14.155389 1.530001 2.070000
v -15.235387 1.170002 2.069998
v -10.645389 3.420000 -1.260000
v -10.375388 3.510000 -0.720000
v -11.185389 3.600000 -0.990000
v -10.195389 3.330000 -0.990000
v -11.185389 3.420001 -1.350000
v -13.345621 3.601007 -0.990509
v -14.155272 3.509496 -0.719745
v -13.885272 3.419496 -1.259746
v -13.345272 3.419497 -1.349746
v -14.335621 3.331008 -0.990510
v -11.185389 2.340000 -2.880000
v -11.365388 2.250000 -3.690000
v -10.375388 2.340000 -2.610000
v -13.345388 2.340000 -2.880001
v -14.155388 2.340000 -2.610001
v -13.165388 2.250000 -3.690000
v -9.475389 0.270001 0.450000
v -9.385389 0.090001 2.069999
v -9.475389 0.270001 1.709999
v -15.055387 0.270002 0.450000
v -15.055387 0.270002 1.709998
v -15.145387 0.090001 2.069999
v -10.375388 0.090000 -4.860000
v -9.295389 0.090000 -4.860000
v -9.385387 0.090000 -6.120000
v -9.835388 0.090000 -6.390000
v -11.365387 0.090000 -6.839999
v -15.235387 0.090000 -4.860000
v -14.155388 0.090000 -4.860000
v -15.145388 0.090000 -6.120000
v -14.695387 0.090000 -6.390000
v -13.165387 0.090000 -6.840000
v -9.295388 1.260000 -2.610000
v -9.385388 1.980000 -1.800000
v -9.475388 1.980000 -3.240000
v -15.235388 1.260001 -2.610001
v -15.055387 1.980000 -3.240000
v -15.145388 1.980000 -1.800001
v -14.515388 1.890000 -5.940001
v -14.785387 1.800000 -5.940001
v -14.425387 1.800000 -6.210001
v -10.105388 1.800000 -6.210000
v -9.745388 1.800000 -5.940000
v -10.015388 1.890000 -5.940000
v -10.375388 0.090002 3.960000
v -10.375388 0.090001 2.070000
v -10.375388 0.090000 -2.970000
v -9.295389 0.090001 -2.970000
v -9.385389 0.090001 2.069999
v -9.385388 0.270001 3.960001
v -14.155389 0.090001 3.960000
v -14.155389 0.090001 2.070000
v -14.155388 0.090000 -2.970001
v -15.235386 0.090001 -2.970001
v -15.145387 0.090001 2.069999
v -15.145389 0.270001 3.960000
v -9.745388 2.160000 -3.420000
v -9.745388 2.250000 -1.980000
v -14.785388 2.160000 -3.420001
v -14.785388 2.250000 -1.980001
v -11.185389 2.340000 -2.880000
v -10.375388 2.340000 -2.610000
v -13.345388 2.340000 -2.880001
v -14.155388 2.340000 -2.610001
v -14.785388 2.250000 -1.980001
v -9.745388 2.250000 -1.980000
v -9.295389 0.090001 -2.970000
v -9.475389 0.270001 -2.520000
v -9.295389 1.170002 2.069998
v -9.295389 1.170001 -2.970000
v -9.295389 1.260001 1.709999
v -9.475389 0.270001 0.450000
v -9.475389 0.270001 1.709999
v -9.295389 1.260001 1.709999
v -9.295389 1.260001 0.449999
v -9.475389 1.260001 4.320000
v -9.295389 1.440002 3.599998
v -9.295389 1.170001 3.960001
v -9.565390 2.070000 3.779999
v -9.475389 2.070000 2.249999
v -9.295389 1.440002 2.429998
v -9.475389 0.270001 -2.520000
v -9.295388 1.260000 -2.610000
v -9.295389 1.440000 -3.420000
v -9.475388 1.980000 -3.240000
v -9.385387 1.170000 -6.120000
v -9.385387 1.260000 -5.310000
v -9.295389 1.170000 -4.860000
v -9.295389 1.440000 -4.500000
v -9.565388 1.980000 -4.590000
v -15.235386 0.090001 -2.970001
v -15.055387 0.270001 -2.520000
v -15.235387 1.170002 2.069998
v -15.235387 1.170001 -2.970001
v -15.235388 1.260001 1.709999
v -15.055387 0.270002 0.450000
v -15.235388 1.260001 0.450000
v -15.235388 1.260001 1.709999
v -15.055387 0.270002 1.709998
v -15.055387 1.260001 4.320000
v -15.235388 1.170001 3.960000
v -15.235387 1.440002 3.599998
v -14.965388 2.070001 3.780000
v -15.055387 2.070001 2.249999
v -15.235388 1.440002 2.429998
v -15.055387 0.270001 -2.520000
v -15.235388 1.260001 -2.610001
v -15.235387 1.440000 -3.420001
v -15.055387 1.980000 -3.240000
v -15.145208 1.170000 -6.120000
v -15.145388 1.260000 -5.310000
v -15.235387 1.440000 -4.500000
v -15.235387 1.170000 -4.860000
v -14.965387 1.980000 -4.590001
v -14.965389 1.170000 5.310000
v -13.615389 1.170000 5.490000
v -14.965389 0.630001 5.220000
v -13.615389 0.450000 5.400001
v -9.374998 2.340000 -1.440000
v -9.791190 2.340000 -1.800000
v -9.791191 2.340000 -1.440000
v -9.881191 2.610000 -1.440000
v -9.374998 2.610000 -1.350000
v -15.155981 2.340000 -1.440000
v -14.763832 2.340000 -1.440000
v -14.763832 2.340000 -1.800001
v -14.673832 2.610000 -1.440000
v -15.155981 2.610000 -1.350001
v -10.915389 0.450000 5.400001
v -9.565390 0.630000 5.220001
v -9.565390 1.170000 5.310000
v -9.745389 1.260001 5.130001
v -9.565390 1.170000 5.310000
v -10.915389 1.170000 5.490000
v -10.915389 1.170000 5.490000
v -11.005389 1.260000 5.310000
v -13.525389 1.260000 5.310000
v -13.615389 1.170000 5.490000
v -14.785389 1.260000 5.130000
v -14.965389 1.170000 5.310000
v -9.745389 1.260000 5.130001
v -9.835389 2.070000 5.040001
v -9.475389 1.260001 4.320000
v -9.565390 2.070000 3.779999
v -9.385388 1.980000 0.450000
v -9.475389 2.070000 2.249999
v -9.835388 1.170000 -6.390000
v -10.015388 1.260000 -6.300000
v -9.835388 1.170000 -6.390000
v -9.565388 1.260000 -6.030000
v -9.385387 1.170000 -6.120000
v -9.565388 1.260000 -6.030000
v -9.385387 1.260000 -5.310000
v -9.565388 1.980000 -4.590000
v -14.785389 1.260000 5.130000
v -15.055387 1.260001 4.320000
v -14.695389 2.070000 5.040000
v -14.965388 2.070001 3.780000
v -15.145389 1.980000 0.450000
v -15.055387 2.070001 2.249999
v -14.695387 1.170000 -6.390001
v -14.515388 1.260000 -6.300000
v -14.965387 1.260000 -6.030001
v -14.695387 1.170000 -6.390001
v -15.145208 1.170000 -6.120000
v -14.965387 1.260000 -6.030001
v -15.145388 1.260000 -5.310000
v -14.965387 1.980000 -4.590001
v -14.695388 2.070000 -4.500001
v -9.835388 2.070000 -4.500000
v -13.075388 2.160000 -4.770000
v -11.455388 2.160000 -4.770000
v -13.525389 2.070000 5.220000
v -13.525389 1.260000 5.310000
v -11.005389 2.070000 5.220000
v -11.005389 1.260000 5.310000
v -13.525389 2.070000 5.220000
v -14.515389 2.520000 5.220000
v -13.435389 2.610000 5.400001
v -14.695389 2.070000 5.040000
v -11.005389 2.070000 5.220000
v -11.095389 2.610000 5.400001
v -10.015389 2.520000 5.220001
v -9.835389 2.070000 5.040001
v -14.695389 2.340000 4.679999
v -14.515389 2.520000 5.220000
v -10.015389 2.520000 5.220001
v -9.835389 2.340000 4.680001
v -11.095389 2.520000 4.680000
v -11.095389 2.610000 5.400001
v -13.435389 2.610000 5.400001
v -13.435389 2.520000 4.680000
v -14.785389 2.340000 3.060000
v -13.075388 1.260000 -6.660001
v -13.165387 1.170000 -6.840000
v -13.165387 1.170000 -6.840000
v -11.365388 1.170000 -6.840000
v -11.455387 1.260000 -6.660001
v -11.365388 1.170000 -6.840000
v -9.745389 2.340000 3.060000
v -13.525389 2.520000 3.420000
v -11.005389 2.520000 3.420001
v -14.875389 2.250000 0.450000
v -9.655389 2.250000 0.450000
v -14.335388 3.420000 0.450000
v -14.335388 3.330000 1.980000
v -14.875389 2.250000 0.450000
v -14.785389 2.340000 3.060000
v -14.155389 3.600000 0.450000
v -14.155389 3.510000 1.710000
v -14.515388 1.260000 -6.300000
v -10.015388 1.260000 -6.300000
v -13.345389 3.420000 2.250000
v -13.525389 2.520000 3.420000
v -13.345388 3.600000 1.890000
v -11.185389 3.420000 2.250000
v -11.005389 2.520000 3.420001
v -9.745389 2.340000 3.060000
v -10.195389 3.330000 1.980000
v -9.655389 2.250000 0.450000
v -10.195389 3.420001 0.450000
v -10.375389 3.510000 1.710000
v -10.375388 3.600000 0.450000
v -11.185389 3.600000 1.890000
v -13.345388 3.690000 0.450000
v -11.185389 3.690000 0.450000
v -13.075388 1.890000 -6.390000
v -13.075388 1.800000 -6.570001
v -13.075388 1.260000 -6.660001
v -11.455387 1.890000 -6.390000
v -11.455387 1.800000 -6.570001
v -11.455387 1.260000 -6.660001
vt 0.000000 0.000000
vt 0.886719 0.890625
vt 0.890625 0.886719
vt 0.894531 0.890625
vt 0.398438 0.451172
vt 0.400391 0.460938
vt 0.387695 0.459961
vt 0.492766 0.319365
vt 0.437771 0.313255
vt 0.456103 0.307144
vt 0.425550 0.301034
vt 0.492766 0.307144
vt 0.307424 0.675976
vt 0.234098 0.608760
vt 0.289093 0.620981
vt 0.234098 0.486549
vt 0.307424 0.419333
vt 0.289093 0.474328
vt 0.299741 0.765385
vt 0.269189 0.753164
vt 0.501390 0.765385
vt 0.611379 0.753164
vt 0.586937 0.765385
vt 0.250857 0.881485
vt 0.348626 0.881485
vt 0.293631 0.832601
vt 0.406800 0.199219
vt 0.378906 0.199219
vt 0.398987 0.207031
vt 0.328125 0.484375
vt 0.335938 0.476562
vt 0.328125 0.476562
vt 0.252429 0.718750
vt 0.350198 0.718750
vt 0.252429 0.376559
vt 0.350198 0.376559
vt 0.492766 0.233818
vt 0.437771 0.233818
vt 0.394997 0.227707
vt 0.875000 0.414062
vt 0.875000 0.343750
vt 0.898438 0.355469
vt 0.898438 0.421875
vt 0.980469 0.421875
vt 0.980469 0.355469
vt 0.910156 0.667969
vt 0.960938 0.722656
vt 0.875000 0.726562
vt 0.715259 0.844822
vt 0.727480 0.887596
vt 0.764143 0.832601
vt 0.635822 0.844822
vt 0.623600 0.887596
vt 0.851562 0.433594
vt 0.863281 0.476562
vt 0.015625 0.871094
vt 0.214844 0.871094
vt 0.214844 0.941406
vt 0.011719 0.941406
vt 0.140867 0.753164
vt 0.055320 0.753164
vt 0.055320 0.826490
vt 0.140867 0.826490
vt 0.611379 0.826491
vt 0.269189 0.826491
vt 0.586937 0.832601
vt 0.501390 0.832601
vt 0.739701 0.826491
vt 0.238636 0.844822
vt 0.165309 0.844822
vt 0.110314 0.832601
vt 0.159199 0.881485
vt 0.681553 0.117304
vt 0.773211 0.153967
vt 0.681553 0.153967
vt 0.773211 0.105083
vt 0.779321 0.160078
vt 0.693774 0.160078
vt 0.789388 0.048828
vt 0.722656 0.054688
vt 0.722656 0.050781
vt 0.831279 0.054955
vt 0.819058 0.048844
vt 0.800727 0.054955
vt 0.922938 0.048844
vt 0.929048 0.054955
vt 0.956527 0.105083
vt 0.956527 0.153967
vt 0.768002 0.062821
vt 0.945208 0.068931
vt 0.774113 0.068931
vt 0.951319 0.062821
vt 0.972769 0.621679
vt 0.887221 0.658342
vt 0.887221 0.597236
vt 0.978879 0.658342
vt 0.964844 0.667969
vt 0.980469 0.468750
vt 0.164062 0.984375
vt 0.011719 0.984375
vt 0.386719 0.156250
vt 0.355469 0.085938
vt 0.355469 0.156250
vt 0.386719 0.085938
vt 0.788518 0.048844
vt 0.800781 0.054688
vt 0.066406 0.867188
vt 0.109375 0.832031
vt 0.062500 0.832031
vt 0.501390 0.881485
vt 0.623601 0.887596
vt 0.500087 0.882787
vt 0.347324 0.882787
vt 0.500087 0.833903
vt 0.160156 0.874498
vt 0.239593 0.886719
vt 0.166267 0.880608
vt 0.238636 0.893706
vt 0.179103 0.382670
vt 0.160156 0.492188
vt 0.160156 0.601562
vt 0.179103 0.712639
vt 0.336405 0.899817
vt 0.699219 0.160156
vt 0.777344 0.214844
vt 0.699219 0.214615
vt 0.777344 0.160156
vt 0.950417 0.160077
vt 0.950417 0.215072
vt 0.785432 0.251736
vt 0.712105 0.245625
vt 0.699884 0.214844
vt 0.944306 0.251736
vt 0.875000 0.718750
vt 0.960938 0.717674
vt 0.972769 0.750000
vt 0.820312 0.625000
vt 0.806810 0.700418
vt 0.769531 0.625000
vt 0.770146 0.712639
vt 0.769531 0.468750
vt 0.820312 0.468750
vt 0.678595 0.905928
vt 0.492188 0.085938
vt 0.492188 0.156250
vt 0.811860 0.073184
vt 0.921850 0.073184
vt 0.805750 0.067074
vt 0.927961 0.067074
vt 0.609375 0.156250
vt 0.609375 0.085938
vt 0.806809 0.394891
vt 0.770146 0.382670
vt 0.660156 0.718750
vt 0.683594 0.632812
vt 0.683594 0.460938
vt 0.501390 0.899817
vt 0.605269 0.973144
vt 0.501390 0.979254
vt 0.403586 0.973212
vt 0.515600 0.410033
vt 0.601148 0.422254
vt 0.515600 0.422254
vt 0.619479 0.410033
vt 0.367188 0.164062
vt 0.398987 0.164062
vt 0.725490 0.319425
vt 0.780485 0.264430
vt 0.792706 0.325536
vt 0.694937 0.252209
vt 0.071447 0.873170
vt 0.164062 0.878906
vt 0.171875 0.886719
vt 0.619479 0.691118
vt 0.613369 0.623902
vt 0.601148 0.678897
vt 0.637811 0.623902
vt 0.939359 0.325536
vt 0.951580 0.264430
vt 0.515600 0.678898
vt 0.515600 0.691119
vt 0.613525 0.624023
vt 0.636719 0.477295
vt 0.636963 0.624023
vt 0.613281 0.624023
vt 0.613281 0.477295
vt 0.613369 0.477249
vt 0.515600 0.477249
vt 0.515600 0.623903
vt 0.436180 0.422262
vt 0.417797 0.410018
vt 0.436163 0.678898
vt 0.417831 0.691119
vt 0.417797 0.477234
vt 0.417831 0.623903
vt 0.495068 0.307214
vt 0.641713 0.307180
vt 0.641737 0.319504
vt 0.495068 0.319435
vt 0.081334 0.394891
vt 0.050781 0.492188
vt 0.496094 0.207031
vt 0.406250 0.199146
vt 0.398438 0.206959
vt 0.496094 0.199219
vt 0.398438 0.163990
vt 0.496094 0.164062
vt 0.641762 0.307583
vt 0.495117 0.307617
vt 0.495117 0.234291
vt 0.641770 0.234291
vt 0.081334 0.700418
vt 0.050781 0.601562
vt 0.605469 0.199219
vt 0.605469 0.207031
vt 0.605469 0.164062
usemtl #00:00:0400
s 1
f 171/9 169/9 167/9
f 171/9 170/9 169/9
f 173/9 176/9 172/9
f 175/9 176/9 173/9
usemtl #00:00:0400_car.bmp
f 30/10 29/11 28/12
f 33/10 32/11 31/12
f 36/10 35/11 34/12
f 39/10 38/11 37/12
f 42/10 41/11 40/12
f 45/11 44/12 43/10
f 48/11 47/12 46/10
f 73/10 72/11 71/12
f 73/10 71/11 74/12
f 74/10 71/11 75/12
f 78/10 77/11 76/12
f 79/10 77/11 78/12
f 80/10 77/11 79/12
f 27/12 30/10 26/11
f 30/12 28/10 26/11
f 33/10 36/11 32/12
f 36/12 34/10 32/11
f 93/11 33/12 31/10
f 93/11 36/12 33/10
f 94/12 36/10 93/11
f 95/12 30/10 27/11
f 25/12 95/10 27/11
f 94/11 35/12 36/10
f 71/12 30/10 95/11
f 71/11 29/12 30/10
f 95/10 25/11 96/12
f 72/10 29/11 71/12
f 97/10 35/11 94/12
f 98/10 93/11 31/12
f 41/11 38/12 39/10
f 40/11 41/12 39/10
f 47/12 44/10 45/11
f 46/11 47/12 45/10
f 44/11 99/12 43/10
f 47/11 99/12 44/10
f 47/12 100/10 99/11
f 41/11 101/12 38/10
f 38/10 101/11 37/12
f 48/12 100/10 47/11
f 41/12 77/10 101/11
f 42/10 77/11 41/12
f 37/11 101/12 102/10
f 42/12 76/10 77/11
f 48/12 103/10 100/11
f 99/12 104/10 43/11
f 94/11 100/12 101/10
f 94/12 101/10 95/11
f 102/12 100/10 103/11
f 101/10 100/11 102/12
f 94/12 95/10 96/11
f 97/11 94/12 96/10
f 169/13 168/14 167/15
f 168/13 171/14 167/15
f 170/14 171/15 168/13
f 174/14 173/15 172/13
f 176/13 174/14 172/15
f 176/14 175/15 174/13
f 177/10 99/11 93/12
f 166/12 99/10 177/11
f 165/11 99/12 166/10
f 104/10 99/11 165/12
f 93/10 178/11 177/12
f 93/11 98/12 178/10
f 93/10 100/11 94/12
f 93/11 99/12 100/10
f 95/10 101/11 71/12
f 101/12 77/10 71/11
f 75/10 71/11 80/12
f 71/11 77/12 80/10
usemtl #00:00:0000_NONE
f 206/9 234/9 233/9
f 236/9 235/9 192/9
usemtl #00:00:0000_car.bmp
f 25/11 27/12 26/10
f 51/16 50/17 49/18
f 49/18 50/17 52/19
f 53/20 51/16 49/18
f 56/18 55/17 54/16
f 56/18 54/16 57/20
f 58/19 55/17 56/18
f 61/21 60/22 59/23
f 64/24 63/25 62/26
f 67/27 66/28 65/29
f 70/30 69/31 68/29
f 83/32 82/33 81/34
f 86/33 85/32 84/34
f 89/35 88/36 87/37
f 92/38 91/39 90/40
f 60/22 61/21 105/41
f 61/21 106/42 105/41
f 107/43 63/25 64/24
f 108/44 63/25 107/43
f 109/45 53/20 49/18
f 49/18 110/46 109/45
f 111/45 56/18 57/20
f 112/46 56/18 111/45
f 58/19 56/18 112/46
f 113/47 58/19 112/46
f 49/18 52/19 110/46
f 52/19 114/47 110/46
f 65/28 66/29 115/27
f 65/28 115/29 116/27
f 117/48 66/49 67/50
f 118/29 116/27 115/28
f 119/51 117/48 67/50
f 123/52 122/51 121/50 120/53
f 126/54 125/55 124/56
f 125/57 127/58 124/59
f 125/57 129/60 128/61
f 127/58 125/57 128/61
f 129/62 117/48 119/51
f 128/63 129/62 119/51
f 120/64 130/65 81/66
f 123/67 120/64 81/66
f 131/29 116/27 118/28
f 132/28 131/29 118/27
f 133/29 131/27 132/28
f 72/68 73/69 134/70 29/71
f 137/29 136/27 135/28
f 138/29 137/27 135/28
f 137/28 133/29 132/27
f 138/28 133/29 137/27
f 70/30 68/29 139/28
f 139/28 68/29 140/27
f 70/30 141/72 69/31
f 140/27 142/73 139/28
f 141/72 143/74 69/31
f 147/31 146/74 145/75 144/29
f 150/57 149/76 148/59
f 151/58 150/57 148/59
f 153/60 150/57 152/61
f 150/57 151/58 152/61
f 141/72 153/60 143/74
f 153/60 152/61 143/74
f 154/27 144/29 145/75 84/34
f 140/27 155/34 142/73
f 155/34 156/77 142/73
f 155/34 157/32 156/77
f 158/70 78/69 76/68 42/71
f 161/71 160/78 159/79
f 160/78 162/80 159/79
f 157/32 160/78 156/77
f 157/32 162/80 160/78
f 165/81 164/82 163/83
f 165/81 166/84 164/82
f 178/85 98/86 179/82
f 98/82 31/85 179/86
f 124/87 180/88 126/89
f 180/90 181/91 126/92
f 177/84 178/81 182/82
f 178/81 179/83 182/82
f 180/90 183/93 181/91
f 180/90 184/94 183/93
f 166/84 177/95 182/96 164/82
f 186/97 184/98 185/99
f 186/97 183/100 184/98
f 165/101 43/102 104/103
f 165/101 163/104 43/102
f 185/93 187/90 186/94
f 187/91 188/90 186/93
f 187/91 148/92 188/90
f 148/87 149/88 188/89
f 191/54 190/55 189/105
f 192/55 190/56 191/54
f 122/51 123/52 193/106
f 194/63 122/51 193/106
f 81/66 82/107 193/108 123/67
f 73/109 195/110 134/111
f 74/112 195/109 73/110
f 198/92 197/90 196/91
f 199/92 197/91 198/113
f 135/114 199/88 198/87
f 136/88 199/89 135/87
f 91/115 201/116 200/117
f 202/80 201/116 91/115
f 205/55 204/54 203/105
f 205/55 206/56 204/54
f 145/75 146/74 207/118
f 146/74 208/119 207/118
f 207/120 86/121 145/122
f 86/33 84/34 145/75
f 209/109 79/112 78/110 158/111
f 212/91 211/92 210/90
f 212/91 213/113 211/92
f 213/87 159/114 211/88
f 213/88 161/89 159/87
f 215/116 88/115 214/117
f 215/116 216/80 88/115
f 216/123 107/124 217/125
f 216/80 85/32 107/126
f 218/38 105/39 202/40
f 105/38 83/39 202/40
f 64/24 217/127 107/43
f 64/24 219/128 217/127
f 220/129 219/128 60/22
f 219/128 64/24 60/22
f 105/41 218/130 60/22
f 218/130 220/129 60/22
f 108/131 85/32 86/33
f 108/131 107/126 85/32
f 105/39 106/40 83/38
f 106/39 82/40 83/38
f 64/24 62/26 60/22
f 62/26 59/23 60/22
f 203/132 221/133 205/134
f 203/132 222/135 221/133
f 222/135 224/136 223/137 221/133
f 224/135 189/132 223/133
f 189/132 190/134 223/133
f 227/138 226/139 225/133
f 226/139 228/140 225/133
f 230/141 227/138 229/137
f 227/138 225/133 229/137
f 229/138 231/133 230/139
f 229/133 232/140 231/139
f 206/142 205/143 234/144
f 235/143 190/144 192/142
f 238/145 235/146 237/147
f 235/146 236/148 237/147
f 237/147 240/149 239/150 238/145
f 208/119 206/58 241/151
f 206/143 233/144 241/142
f 243/93 210/90 242/94
f 243/93 212/91 210/90
f 80/152 79/112 209/109 244/153
f 246/93 196/90 245/94
f 196/91 197/90 245/93
f 247/153 195/109 74/112 75/152
f 242/154 246/155 243/156
f 246/155 245/157 243/156
f 244/153 247/158 75/159 80/152
f 248/151 192/58 194/119
f 248/142 236/143 192/144
f 240/149 234/160 239/150
f 240/149 233/161 234/160
f 241/162 233/148 249/163
f 233/148 240/147 249/163
f 236/148 250/163 237/147
f 236/148 248/162 250/163
f 240/149 237/147 249/164
f 237/147 250/163 249/164
f 207/118 208/119 251/165
f 208/119 241/151 251/165
f 251/165 86/33 207/118
f 251/165 108/131 86/33
f 252/165 194/119 193/118
f 252/165 248/151 194/119
f 193/118 82/33 252/165
f 82/33 106/131 252/165
f 255/165 254/166 253/167
f 255/165 256/151 254/166
f 253/167 58/168 255/165
f 58/168 113/131 255/165
f 253/169 258/170 257/171
f 253/169 254/172 258/170
f 214/173 88/36 259/174
f 88/36 89/35 259/174
f 91/36 260/174 90/35
f 91/36 200/173 260/174
f 254/175 262/176 261/177
f 254/175 256/178 262/176
f 88/32 217/126 87/80
f 88/179 216/180 217/181
f 254/182 263/183 258/184
f 254/182 261/185 263/183
f 262/176 264/186 261/177
f 262/176 265/187 264/186
f 267/175 265/176 266/178
f 267/175 264/177 265/176
f 269/167 267/166 268/165
f 267/166 266/151 268/165
f 268/165 52/168 269/167
f 268/165 114/131 52/168
f 271/188 270/184 269/189
f 270/184 267/182 269/189
f 270/184 272/183 267/182
f 272/183 264/185 267/182
f 272/190 261/191 264/192
f 272/193 263/194 261/191
f 263/195 257/171 258/170
f 263/195 273/196 257/171
f 270/184 271/188 272/183
f 271/188 274/197 272/183
f 272/183 274/197 273/196 263/195
f 257/171 55/198 253/169
f 55/198 58/199 253/169
f 269/189 50/200 271/188
f 269/189 52/201 50/200
f 273/196 55/198 257/171
f 273/196 54/202 55/198
f 271/188 50/200 274/197
f 50/200 51/203 274/197
f 274/197 51/203 54/202 273/196
f 53/204 57/205 54/206 51/207
f 202/39 92/40 218/38
f 202/38 91/39 92/40
f 219/128 87/208 217/127
f 275/209 87/208 219/128
f 275/210 89/211 87/212
f 276/213 89/211 275/210
f 276/213 259/214 89/211
f 277/215 259/214 276/213
f 57/216 53/217 109/218 111/219
f 92/220 220/129 218/130
f 92/220 278/221 220/129
f 220/129 278/221 275/209 219/128
f 90/212 278/210 92/211
f 90/211 279/213 278/210
f 276/213 275/210 279/222
f 275/210 278/222 279/223
f 260/214 279/213 90/211
f 260/214 280/215 279/213
f 276/213 279/222 280/224 277/215
